Gapminder data visualization example – Statistics for Social Work
…
The key question is “How can we easily fit that model to every country?”

To do this, we use the nest() function.

Understanding nest() and the List-Column

Usually, a dataframe is a rectangle of numbers and strings. But in the “tidyverse”, a dataframe can hold anything—even other dataframes.

by_country <- gapminder %>%
  group_by(country, continent) %>%
  nest()

by_country

# A tibble: 142 × 3
# Groups:   country, continent [142]
   country     continent data             
   <fct>       <fct>     <list>           
 1 Afghanistan Asia      <tibble [12 × 4]>
 2 Albania     Europe    <tibble [12 × 4]>
 3 Algeria     Africa    <tibble [12 × 4]>
 4 Angola      Africa    <tibble [12 × 4]>
 5 Argentina   Americas  <tibble [12 × 4]>
 6 Australia   Oceania   <tibble [12 × 4]>
 7 Austria     Europe    <tibble [12 × 4]>
 8 Bahrain     Asia      <tibble [12 × 4]>
 9 Bangladesh  Asia      <tibble [12 × 4]>
10 Belgium     Europe    <tibble [12 × 4]>
# ℹ 132 more rows
…
We can now calculate residuals for everyone and unnest the data so we can plot it.

# Add residuals to each country's data
by_country <- by_country %>% 
  mutate(
    resids = map2(data, model, add_residuals)
  )

# Unnest expands the list-columns back into a regular big dataframe
resids <- unnest(by_country, resids)

resids

# A tibble: 1,704 × 9
# Groups:   country, continent [142]
   country     continent data     model   year lifeExp     pop gdpPercap   resid
   <fct>       <fct>     <list>   <list> <int>   <dbl>   <int>     <dbl>   <dbl>
 1 Afghanistan Asia      <tibble> <lm>    1952    28.8  8.43e6      779. -1.11  
 2 Afghanistan Asia      <tibble> <lm>    1957    30.3  9.24e6      821. -0.952 
 3 Afghanistan Asia      <tibble> <lm>    1962    32.0  1.03e7      853. -0.664 
 4 Afghanistan Asia      <tibble> <lm>    1967    34.0  1.15e7      836. -0.0172
 5 Afghanistan Asia      <tibble> <lm>    1972    36.1  1.31e7      740.  0.674 
 6 Afghanistan Asia      <tibble> <lm>    1977    38.4  1.49e7      786.  1.65  
 7 Afghanistan Asia      <tibble> <lm>    1982    39.9  1.29e7      978.  1.69  
 8 Afghanistan Asia      <tibble> <lm>    1987    40.8  1.39e7      852.  1.28  
 9 Afghanistan Asia      <tibble> <lm>    1992    41.7  1.63e7      649.  0.754 
10 Afghanistan Asia      <tibble> <lm>    1997    41.8  2.22e7      635. -0.534 
# ℹ 1,694 more rows
…
